{
    "imgSize": {
        "width": 1920,
        "height": 1080
    },
    "patch": {
		"patchFileName": "_canBF_couch_tv_.bin.gz",
		"targetFileName": "_canBF_couch_tv_target.png"
	}, 
    "masks":{
        "tv_2a_mask": "tv_2a_mask.png"
    },
    "outputDestination": "/img/pictures/",
    "sourceImages": {
        "tv_2a": "/img/pictures/tv_2a.k9a"
    },
    "sections":{
        "par2overlay":[
            {
                "action": "SELECT_MASK",
                "imgName": "tv_2a",
                "maskName": "tv_2a_mask"
            },
            {
                "action": "SCALE",
                "scalefactor": 1.7917
            },
            {
                "action": "FLIP",
                "direction": "horizontal"
            },
            {
                "action": "PASTE",
                "x": 1321,
                "y": 248
            }
        ]
    }
}