{
    "imgSize": {
        "width": 1280,
        "height": 720
    },
    "patch": {
		"patchFileName": "_canBF_puppet_8.bin.gz",
		"targetFileName": "_canBF_puppet_8_target.png"
	}, 
    "masks":{
        "andrew_1a": "_canBF_puppet_torso_1a_andrew.png",
        "cultist": "_canBF_puppet_torso_1a_cultist.png"
    },
    "outputDestination": "/img/pictures/",
    "sourceImages": {
        "torso_1a": "/img/pictures/torso_1a.k9a",
        "torso_1b": "/img/pictures/torso_1b.k9a"
    },
    "sections":{
        "base":[
            {
                "action": "SELECT_RECT",
                "imgName": "torso_1b",
                "x": 0,
                "y": 0, 
                "width": 1280, 
                "height": 720
            },
            {
                "action": "PASTE",
                "x": -8,
                "y": 0
            }
        ]
    }
}