{
    "imgSize": {
        "width": 1296,
        "height": 720
    },
    "outputDestination": "/img/parallaxes/",
    "sourceImages": {
        "ground41_2": "/img/parallaxes/ground41.k9a"
    },
    "sections":{
        "par2overlay":[
            {
                "action": "SELECT_RECT",
                "imgName": "ground41_2",
                "x": 0,
                "y": 0, 
                "width": 1296, 
                "height": 720
            },
            {
                "action": "PASTE",
                "x": 18,
                "y": 6
            }
        ]
    }
}