{
    "imgSize": {
        "width": 1296,
        "height": 720
    },
    "outputDestination": "/img/parallaxes/",
    "sourceImages": {
        "par2": "/img/parallaxes/par2.k9a"
    },
    "sections":{
        "par2overlay":[
            {
                "action": "SELECT_RECT",
                "imgName": "par2"
            },
            {
                "action": "PASTE",
                "x": 0,
                "y": 0
            }
        ]
    }
}