{
    "imgSize": {
        "width": 1296,
        "height": 720
    },
    "outputDestination": "/img/parallaxes/",
    "patch": {
		"patchFileName": "par902_target.bin.gz",
		"targetFileName": "par902_target.png"
	}, 
    "masks":{
        "par902_ground41_mask": "par902_ground41_mask.png"
    },
    "sourceImages": {
        "ground41_2": "/img/parallaxes/ground41.k9a"
    },
    "sections":{
        "cloudsRight":[
            {
                "action": "SELECT_MASK",
                "imgName": "ground41_2",
                "maskName": "par902_ground41_mask"
            },
            {
                "action": "PASTE",
                "x": 432,
                "y": 240
            }
        ]
    }
}